Apply a function to slices of a data frame — by_slice • purrrlyr
…
# by_slice() is especially useful in combination with map().

# To modify the contents of a data frame, use rows collation. Note
# that unlike dplyr, Mutating and summarising operations can be
# used indistinctly.

# Mutating operation:
df <- mtcars %>% slice_rows(c("cyl", "am"))
df %>% by_slice(dmap, ~ .x / sum(.x), .collate = "rows")
#> # A tibble: 32 x 11
#>      cyl    am   mpg   disp     hp  drat     wt  qsec    vs  gear   carb
#>    <dbl> <dbl> <dbl>  <dbl>  <dbl> <dbl>  <dbl> <dbl> <dbl> <dbl>  <dbl>
#>  1     4     0 0.355 0.360  0.244  0.326 0.362  0.318 0.333 0.364 0.4   
#>  2     4     0 0.332 0.345  0.374  0.347 0.358  0.364 0.333 0.364 0.4   
#>  3     4     0 0.313 0.295  0.382  0.327 0.280  0.318 0.333 0.273 0.2   
#>  4     4     1 0.102 0.144  0.142  0.115 0.142  0.126 0.143 0.118 0.0833
#>  5     4     1 0.144 0.105  0.101  0.122 0.135  0.132 0.143 0.118 0.0833
#>  6     4     1 0.135 0.101  0.0794 0.147 0.0988 0.125 0.143 0.118 0.167 
#>  7     4     1 0.151 0.0949 0.0992 0.126 0.112  0.135 0.143 0.118 0.0833
#>  8     4     1 0.122 0.105  0.101  0.122 0.118  0.128 0.143 0.118 0.0833
#>  9     4     1 0.116 0.161  0.139  0.132 0.131  0.113 0     0.147 0.167 
#> 10     4     1 0.135 0.127  0.173  0.113 0.0926 0.114 0.143 0.147 0.167 
#> # … with 22 more rows
# Summarising operation:
df %>% by_slice(dmap, mean, .collate = "rows")
#> # A tibble: 6 x 11
#>     cyl    am   mpg  disp    hp  drat    wt  qsec    vs  gear  carb
#>   <dbl> <dbl> <dbl> <dbl> <dbl> <dbl> <dbl> <dbl> <dbl> <dbl> <dbl>
#> 1     4     0  22.9 136.   84.7  3.77  2.94  21.0 1      3.67  1.67
#> 2     4     1  28.1  93.6  81.9  4.18  2.04  18.4 0.875  4.25  1.5 
#> 3     6     0  19.1 205.  115.   3.42  3.39  19.2 1      3.5   2.5 
#> 4     6     1  20.6 155   132.   3.81  2.76  16.3 0      4.33  4.67
#> 5     8     0  15.0 358.  194.   3.12  4.10  17.1 0      3     3.08
#> 6     8     1  15.4 326   300.   3.88  3.37  14.6 0      5     6   

# Note that mapping columns within slices is best handled by dmap():
df %>% dmap(~ .x / sum(.x))
#> # A tibble: 32 x 11
#>      cyl    am   mpg   disp     hp  drat     wt  qsec    vs  gear   carb
#>    <dbl> <dbl> <dbl>  <dbl>  <dbl> <dbl>  <dbl> <dbl> <dbl> <dbl>  <dbl>
#>  1     4     0 0.355 0.360  0.244  0.326 0.362  0.318 0.333 0.364 0.4   
#>  2     4     0 0.332 0.345  0.374  0.347 0.358  0.364 0.333 0.364 0.4   
#>  3     4     0 0.313 0.295  0.382  0.327 0.280  0.318 0.333 0.273 0.2   
#>  4     4     1 0.102 0.144  0.142  0.115 0.142  0.126 0.143 0.118 0.0833
#>  5     4     1 0.144 0.105  0.101  0.122 0.135  0.132 0.143 0.118 0.0833
#>  6     4     1 0.135 0.101  0.0794 0.147 0.0988 0.125 0.143 0.118 0.167 
#>  7     4     1 0.151 0.0949 0.0992 0.126 0.112  0.135 0.143 0.118 0.0833
#>  8     4     1 0.122 0.105  0.101  0.122 0.118  0.128 0.143 0.118 0.0833
#>  9     4     1 0.116 0.161  0.139  0.132 0.131  0.113 0     0.147 0.167 
#> 10     4     1 0.135 0.127  0.173  0.113 0.0926 0.114 0.143 0.147 0.167 
#> # … with 22 more rows
…
