Map over the columns of a data frame — dmap • purrrlyr
…
# dmap() also supports sliced data frames:
sliced_df <- mtcars[1:5] %>% slice_rows("cyl")
sliced_df %>% dmap(mean)
#> # A tibble: 3 x 5
#>     cyl   mpg  disp    hp  drat
#>   <dbl> <dbl> <dbl> <dbl> <dbl>
#> 1     4  26.7  105.  82.6  4.07
#> 2     6  19.7  183. 122.   3.59
#> 3     8  15.1  353. 209.   3.23
sliced_df %>% dmap(~ .x / max(.x))
#> # A tibble: 32 x 5
#>      cyl   mpg  disp    hp  drat
#>    <dbl> <dbl> <dbl> <dbl> <dbl>
#>  1     4 0.673 0.736 0.823 0.781
#>  2     4 0.720 1     0.549 0.748
#>  3     4 0.673 0.960 0.841 0.795
#>  4     4 0.956 0.536 0.584 0.828
#>  5     4 0.897 0.516 0.460 1    
#>  6     4 1     0.485 0.575 0.856
#>  7     4 0.634 0.819 0.858 0.751
#>  8     4 0.805 0.539 0.584 0.828
#>  9     4 0.767 0.820 0.805 0.899
#> 10     4 0.897 0.648 1     0.765
#> # … with 22 more rows
…
